project_2.sim/sim_1/behav/xsim/top_tb.vcd
$date
   Fri Jul 18 16:00:48 2025
$end

$version
  2025.1.0
  $dumpfile ("top_tb.vcd") 
$end

$timescale
  1ps
$end

$scope module top_tb $end
$var reg 1 ! clk $end
$var reg 1 " reset $end
$var wire 8 # catode [7:0] $end
$var wire 4 $ anode [3:0] $end
$scope module uut $end
$var wire 1 % clk $end
$var wire 1 & reset $end
$var wire 8 # catode [7:0] $end
$var wire 4 $ anode [3:0] $end
$var wire 32 ' ReadData [31:0] $end
$var wire 32 ( WriteData [31:0] $end
$var wire 32 ) Adr [31:0] $end
$var wire 1 * MemWrite $end
$var wire 1 + clk_slow $end
$var wire 16 , hex_value [15:0] $end
$scope module slow_clk $end
$var wire 1 % in_clk $end
$var reg 1 - out_clk $end
$var reg 24 . counter [23:0] $end
$upscope $end
$scope module u_arm $end
$var wire 1 % clk $end
$var wire 1 & reset $end
$var wire 1 * MemWrite $end
$var wire 32 ) Adr [31:0] $end
$var wire 32 ( WriteData [31:0] $end
$var wire 32 ' ReadData [31:0] $end
$var wire 32 / Instr [31:0] $end
$var wire 4 0 ALUFlags [3:0] $end
$var wire 1 1 PCWrite $end
$var wire 1 2 RegWrite $end
$var wire 1 3 IRWrite $end
$var wire 1 4 AdrSrc $end
$var wire 2 5 RegSrc [1:0] $end
$var wire 1 6 ALUSrcA $end
$var wire 2 7 ALUSrcB [1:0] $end
$var wire 2 8 ImmSrc [1:0] $end
$var wire 4 9 ALUControl [3:0] $end
$var wire 2 : ResultSrc [1:0] $end
$var wire 1 ; isMul $end
$var wire 1 < isUMULL $end
$var wire 1 = isSMULL $end
$var wire 1 > isMul64 $end
$var wire 1 ? isHi $end
$var wire 1 @ isSDIV $end
$var wire 1 A isUDIV $end
$var wire 1 B isDiv $end
$var wire 1 C wa3 $end
$scope module c $end
$var wire 1 % clk $end
$var wire 1 & reset $end
$var wire 20 D Instr [31:12] $end
$var wire 4 0 ALUFlags [3:0] $end
$var wire 1 ; isMul $end
$var wire 1 1 PCWrite $end
$var wire 1 * MemWrite $end
$var wire 1 2 RegWrite $end
$var wire 1 3 IRWrite $end
$var wire 1 4 AdrSrc $end
$var wire 2 5 RegSrc [1:0] $end
$var wire 1 6 ALUSrcA $end
$var wire 2 7 ALUSrcB [1:0] $end
$var wire 2 : ResultSrc [1:0] $end
$var wire 2 8 ImmSrc [1:0] $end
$var wire 4 9 ALUControl [3:0] $end
$var wire 1 > isMul64 $end
$var wire 1 B isDiv $end
$var wire 1 ? isHi $end
$var wire 4 E wa3 [3:0] $end
$var wire 2 F FlagW [1:0] $end
$var wire 1 G PCS $end
$var wire 1 H NextPC $end
$var wire 1 I RegW $end
$var wire 1 J MemW $end
$scope module dec $end
$var wire 1 % clk $end
$var wire 1 & reset $end
$var wire 2 K Op [27:26] $end
$var wire 6 L Funct [25:20] $end
$var wire 4 E Rd [3:0] $end
$var wire 1 ; isMul $end
$var reg 2 M FlagW [1:0] $end
$var wire 1 G PCS $end
$var wire 1 H NextPC $end
$var wire 1 I RegW $end
$var wire 1 J MemW $end
$var wire 1 3 IRWrite $end
$var wire 1 4 AdrSrc $end
$var wire 2 : ResultSrc [1:0] $end
$var wire 1 6 ALUSrcA $end
$var wire 2 7 ALUSrcB [1:0] $end
$var wire 2 8 ImmSrc [1:0] $end
$var wire 2 5 RegSrc [1:0] $end
$var reg 4 N ALUControl [3:0] $end
$var wire 1 ? isHi $end
$var wire 1 > isMul64 $end
$var wire 1 B isDiv $end
$var wire 1 O Branch $end
$var wire 1 P ALUOp $end
$scope module fsm $end
$var wire 1 % clk $end
$var wire 1 & reset $end
$var wire 1 ; isMul $end
$var wire 1 > isMul64 $end
$var wire 1 B isDiv $end
$var wire 2 K Op [27:26] $end
$var wire 6 L Funct [25:20] $end
$var wire 1 3 IRWrite $end
$var wire 1 4 AdrSrc $end
$var wire 1 6 ALUSrcA $end
$var wire 2 7 ALUSrcB [1:0] $end
$var wire 2 : ResultSrc [1:0] $end
$var wire 1 H NextPC $end
$var wire 1 I RegW $end
$var wire 1 J MemW $end
$var wire 1 O Branch $end
$var wire 1 P ALUOp $end
$var reg 1 Q isHi $end
$var reg 4 R state [3:0] $end
$var reg 4 S nextstate [3:0] $end
$var reg 12 T controls [11:0] $end
$upscope $end
$upscope $end
$scope module cl $end
$var wire 1 % clk $end
$var wire 1 & reset $end
$var wire 4 U Cond [31:28] $end
$var wire 4 0 ALUFlags [3:0] $end
$var wire 2 F FlagW [1:0] $end
$var wire 1 G PCS $end
$var wire 1 H NextPC $end
$var wire 1 I RegW $end
$var wire 1 J MemW $end
$var wire 1 1 PCWrite $end
$var wire 1 2 RegWrite $end
$var wire 1 * MemWrite $end
$var wire 2 V FlagWrite [1:0] $end
$var wire 4 W Flags [3:0] $end
$var wire 1 X CondEx $end
$var wire 1 Y PCIntermedio $end
$var wire 1 Z CondExNew $end
$scope module cc $end
$var wire 4 U Cond [31:28] $end
$var wire 4 W Flags [3:0] $end
$var reg 1 [ CondEx $end
$var wire 1 \ neg $end
$var wire 1 ] zero $end
$var wire 1 ^ carry $end
$var wire 1 _ overflow $end
$var wire 1 ` ge $end
$upscope $end
$scope module flagreg1 $end
$var wire 1 % clk $end
$var wire 1 & reset $end
$var wire 1 a we $end
$var wire 2 b d [3:2] $end
$var reg 2 c q [1:0] $end
$upscope $end
$scope module flagreg0 $end
$var wire 1 % clk $end
$var wire 1 & reset $end
$var wire 1 d we $end
$var wire 2 e d [1:0] $end
$var reg 2 f q [1:0] $end
$upscope $end
$scope module flopcondEx $end
$var wire 1 % clk $end
$var wire 1 & reset $end
$var wire 1 X d [0:0] $end
$var reg 1 g q [0:0] $end
$upscope $end
$upscope $end
$upscope $end
$scope module dp $end
$var wire 1 % clk $end
$var wire 1 & reset $end
$var wire 32 ) Adr [31:0] $end
$var wire 32 ( WriteData [31:0] $end
$var wire 32 ' ReadData [31:0] $end
$var wire 32 / Instr [31:0] $end
$var wire 4 0 ALUFlags [3:0] $end
$var wire 1 1 PCWrite $end
$var wire 1 2 RegWrite $end
$var wire 1 3 IRWrite $end
$var wire 1 4 AdrSrc $end
$var wire 2 5 RegSrc [1:0] $end
$var wire 1 6 ALUSrcA $end
$var wire 2 7 ALUSrcB [1:0] $end
$var wire 2 : ResultSrc [1:0] $end
$var wire 2 8 ImmSrc [1:0] $end
$var wire 4 9 ALUControl [3:0] $end
$var wire 32 h PCNext [31:0] $end
$var wire 32 i PC [31:0] $end
$var wire 32 j ExtImm [31:0] $end
$var wire 32 k SrcA [31:0] $end
$var wire 32 l SrcB [31:0] $end
$var wire 1 ; isMul $end
$var wire 1 = isSMULL $end
$var wire 1 ? isHi $end
$var wire 1 > isMul64 $end
$var wire 1 B isDiv $end
$var wire 1 @ isSDIV $end
$var wire 32 m ALUResulthi [31:0] $end
$var wire 32 n Result [31:0] $end
$var wire 32 o Data [31:0] $end
$var wire 32 p RD1 [31:0] $end
$var wire 32 q RD2 [31:0] $end
$var wire 32 r A [31:0] $end
$var wire 32 s ALUResult [31:0] $end
$var wire 32 t ALUOut [31:0] $end
$var wire 32 u ALUOut2 [31:0] $end
$var wire 4 v RA1 [3:0] $end
$var wire 4 w RA2 [3:0] $end
$var wire 1 x isnotdp $end
$var wire 1 y hi_mul_div $end
$var wire 4 z operando1 [3:0] $end
$var wire 4 { operando2 [3:0] $end
$var wire 32 | B [31:0] $end
$var wire 32 } A2 [31:0] $end
$var wire 32 ~ B2 [31:0] $end
$var wire 4 !! wa3 [3:0] $end
$scope module pcreg $end
$var wire 1 % clk $end
$var wire 1 & reset $end
$var wire 1 1 we $end
$var wire 32 h d [31:0] $end
$var reg 32 "! q [31:0] $end
$upscope $end
$scope module lohi $end
$var wire 4 #! d0 [15:12] $end
$var wire 4 $! d1 [19:16] $end
$var wire 2 %! s [1:0] $end
$var wire 4 !! y [3:0] $end
$upscope $end
$scope module pcadr $end
$var wire 32 i d0 [31:0] $end
$var wire 32 n d1 [31:0] $end
$var wire 2 &! s [1:0] $end
$var wire 32 ) y [31:0] $end
$upscope $end
$scope module readinst $end
$var wire 1 % clk $end
$var wire 1 & reset $end
$var wire 1 3 we $end
$var wire 32 ' d [31:0] $end
$var reg 32 '! q [31:0] $end
$upscope $end
$scope module readdata $end
$var wire 1 % clk $end
$var wire 1 & reset $end
$var wire 32 ' d [31:0] $end
$var reg 32 (! q [31:0] $end
$upscope $end
$scope module ra1muxmux $end
$var wire 4 $! d0 [19:16] $end
$var wire 4 )! d1 [3:0] $end
$var wire 2 *! s [1:0] $end
$var wire 4 z y [3:0] $end
$upscope $end
$scope module ra2muxmux $end
$var wire 4 )! d0 [3:0] $end
$var wire 4 +! d1 [11:8] $end
$var wire 2 *! s [1:0] $end
$var wire 4 { y [3:0] $end
$upscope $end
$scope module ra1mux $end
$var wire 4 z d0 [3:0] $end
$var wire 4 ,! d1 [3:0] $end
$var wire 2 -! s [1:0] $end
$var wire 4 v y [3:0] $end
$upscope $end
$scope module ra2mux $end
$var wire 4 { d0 [3:0] $end
$var wire 4 #! d1 [15:12] $end
$var wire 2 .! s [1:0] $end
$var wire 4 w y [3:0] $end
$upscope $end
$scope module rf $end
$var wire 1 % clk $end
$var wire 1 2 we3 $end
$var wire 4 v ra1 [3:0] $end
$var wire 4 w ra2 [3:0] $end
$var wire 4 !! wa3 [3:0] $end
$var wire 32 n wd3 [31:0] $end
$var wire 32 n r15 [31:0] $end
$var wire 32 } rd1 [31:0] $end
$var wire 32 ~ rd2 [31:0] $end
$upscope $end
$scope module ext $end
$var wire 24 /! Instr [23:0] $end
$var wire 2 8 ImmSrc [1:0] $end
$var reg 32 0! ExtImm [31:0] $end
$upscope $end
$scope module flopR1R2 $end
$var wire 1 % clk $end
$var wire 1 & reset $end
$var wire 32 } d0 [31:0] $end
$var wire 32 ~ d1 [31:0] $end
$var reg 32 1! q0 [31:0] $end
$var reg 32 2! q1 [31:0] $end
$upscope $end
$scope module srcamux $end
$var wire 32 r d0 [31:0] $end
$var wire 32 i d1 [31:0] $end
$var wire 1 6 s $end
$var wire 32 k y [31:0] $end
$upscope $end
$scope module srcbmux $end
$var wire 32 ( d0 [31:0] $end
$var wire 32 j d1 [31:0] $end
$var wire 32 3! d2 [31:0] $end
$var wire 2 7 s [1:0] $end
$var reg 32 4! y [31:0] $end
$upscope $end
$scope module alu $end
$var wire 32 k a [31:0] $end
$var wire 32 l b [31:0] $end
$var wire 4 9 ALUControl [3:0] $end
$var wire 1 = isSMULL $end
$var wire 1 @ isSDIV $end
$var reg 32 5! ALUResult [31:0] $end
$var reg 32 6! ALUResulthi [31:0] $end
$var wire 4 0 ALUFlags [3:0] $end
$var wire 1 7! neg $end
$var wire 1 8! zero $end
$var wire 1 9! carry $end
$var wire 1 :! overflow $end
$var wire 32 ;! condinvb [31:0] $end
$var wire 33 <! sum [32:0] $end
$var wire 32 =! sumaFP [31:0] $end
$var wire 32 >! mulFP [31:0] $end
$scope module fpadd $end
$var wire 32 k a [31:0] $end
$var wire 32 l b [31:0] $end
$var reg 32 ?! f [31:0] $end
$var wire 1 @! sign1 $end
$var wire 1 A! sign2 $end
$var wire 8 B! exponent1 [7:0] $end
$var wire 8 C! exponent2 [7:0] $end
$var wire 24 D! mantissa1 [23:0] $end
$var wire 24 E! mantissa2 [23:0] $end
$var reg 24 F! mantissa_a [23:0] $end
$var reg 24 G! mantissa_b [23:0] $end
$var reg 8 H! exponent_result [7:0] $end
$var reg 25 I! mantissa_result [24:0] $end
$var reg 1 J! result_sign $end
$var reg 5 K! shift_count [4:0] $end
$var reg 23 L! result_fraction [22:0] $end
$upscope $end
$scope module fpmul $end
$var wire 32 k a [31:0] $end
$var wire 32 l b [31:0] $end
$var reg 32 M! f [31:0] $end
$var wire 1 N! sign_a $end
$var wire 1 O! sign_b $end
$var wire 8 P! exp_a [7:0] $end
$var wire 8 Q! exp_b [7:0] $end
$var wire 23 R! frac_a [22:0] $end
$var wire 23 S! frac_b [22:0] $end
$var wire 24 T! mant_a [23:0] $end
$var wire 24 U! mant_b [23:0] $end
$var reg 48 V! product_mant [47:0] $end
$var reg 8 W! exp_result [7:0] $end
$var reg 1 X! sign_result $end
$var reg 23 Y! frac_result [22:0] $end
$upscope $end
$upscope $end
$scope module aluresultreg $end
$var wire 1 % clk $end
$var wire 1 & reset $end
$var wire 32 s d [31:0] $end
$var reg 32 Z! q [31:0] $end
$upscope $end
$scope module aluresultreg2 $end
$var wire 1 % clk $end
$var wire 1 & reset $end
$var wire 32 m d [31:0] $end
$var reg 32 [! q [31:0] $end
$upscope $end
$scope module aluoutresult $end
$var wire 32 t d0 [31:0] $end
$var wire 32 o d1 [31:0] $end
$var wire 32 s d2 [31:0] $end
$var wire 32 u d3 [31:0] $end
$var wire 2 : s [1:0] $end
$var reg 32 \! y [31:0] $end
$upscope $end
$upscope $end
$upscope $end
$scope module u_mem $end
$var wire 1 % clk $end
$var wire 1 * we $end
$var wire 32 ) a [31:0] $end
$var wire 32 ( wd [31:0] $end
$var wire 32 ' rd [31:0] $end
$upscope $end
$scope module u_disp $end
$var wire 1 % clk $end
$var wire 1 & reset $end
$var wire 16 , data [15:0] $end
$var wire 8 # catode [7:0] $end
$var wire 4 $ anode [3:0] $end
$var wire 1 ]! scl_clk $end
$var wire 4 ^! digit [3:0] $end
$scope module sc $end
$var wire 1 % in_clk $end
$var reg 1 _! out_clk $end
$var reg 18 `! counter [17:0] $end
$upscope $end
$scope module m $end
$var wire 1 ]! clk $end
$var wire 1 & reset $end
$var wire 16 , data [15:0] $end
$var reg 4 a! digit [3:0] $end
$var reg 4 b! anode [3:0] $end
$var reg 2 c! digit_counter [1:0] $end
$upscope $end
$scope module decoder $end
$var wire 4 ^! digit [3:0] $end
$var reg 8 d! catode [7:0] $end
$upscope $end
$upscope $end
$upscope $end
$upscope $end
$enddefinitions $end

#0
$dumpvars
0!
b0 !!
1"
b0 "!
b11 #
b0 #!
b111 $
b0 $!
0%
bz0 %!
1&
bz0 &!
b11100011101000000000000010000000 '
b0 '!
b0 (
b0 (!
b0 )
b0 )!
0*
bz0 *!
x+
b0 +!
b0 ,
b1111 ,!
x-
bz0 -!
b1 .
bz0 .!
b0 /
b0 /!
b0 0
b0 0!
11
b0 1!
02
b0 2!
13
b100 3!
04
b100 4!
b0 5
b100 5!
16
b0 6!
b10 7
07!
b0 8
08!
b0 9
09!
b10 :
0:!
0;
b100 ;!
0<
b100 <!
0=
b100 =!
0>
b0 >!
0?
b100 ?!
0@
0@!
0A
0A!
0B
b0 B!
0C
b0 C!
b0 D
b0 D!
bz0 E
b100 E!
b0 F
b100 F!
0G
b0 G!
1H
b0 H!
0I
b100 I!
0J
0J!
b0 K
b0 K!
b0 L
b100 L!
b0 M
b0 M!
b0 N
0N!
0O
0O!
0P
b0 P!
0Q
b0 Q!
b0 R
b0 R!
b1 S
b100 S!
b100010101100 T
b0 T!
b0 U
b100 U!
b0 V
bx V!
b0 W
bx W!
0X
xX!
0Y
bx Y!
0Z
b0 Z!
0[
b0 [!
0\
b100 \!
0]
x]!
0^
b0 ^!
0_
x_!
1`
b1 `!
0a
b0 a!
b0 b
b111 b!
b0 c
b0 c!
0d
b11 d!
b0 e
b0 f
0g
b100 h
b0 i
b0 j
b0 k
b100 l
b0 m
b100 n
b0 o
bz p
bz q
b0 r
b100 s
b0 t
b0 u
b0 v
b0 w
0x
0y
b0 z
b0 {
bz |
bx }
bx ~
$end

#5000
1!
1%
b10 .
b10 `!

#10000
0!
0%

#15000
1!
1%
b11 .
b11 `!

#20000
0!
0%

#25000
1!
1%
b100 .
b100 `!

#30000
0!
0%

#35000
1!
1%
b101 .
b101 `!

#40000
0!
0%

#45000
1!
1%
b110 .
b110 `!

#50000
0!
0"
0%
0&

#55000
1!
b100 "!
b0 #!
b0 $!
1%
b11100011101000000001000000000000 '
b11100011101000000000000010000000 '!
bx (
b11100011101000000000000010000000 (!
b100 )
b0 )!
b0 +!
b100 ,
b111 .
b11100011101000000000000010000000 /
b101000000000000010000000 /!
b10000000 0!
01
bx 1!
bx 2!
03
b1000 5!
b1000 <!
b1000 =!
b1000000100000000000000000000000 >!
b1000 ?!
b11100011101000000000 D
b100 D!
b100 G!
0H
b1000 I!
b0 K
b111010 L
b1000 L!
b1000000100000000000000000000000 M!
b1 R
b100 R!
b111 S
b101100 T
b100 T!
b1110 U
b10000 V!
b10000001 W!
1X
0X!
b0 Y!
b100 Z!
1[
b1000 \!
b111 `!
b111 b!
b1000 h
b100 i
b10000000 j
b100 k
b1000 n
b11100011101000000000000010000000 o
bx r
b1000 s
b100 t

#60000
0!
0%

#65000
1!
1%
b11100011101000000001000000000000 (!
b1000 .
b0 0
b10000000 4!
b10000000 5!
06
b1 7
b1001 9
09!
b0 :
0:!
b11111111111111111111111101111111 ;!
bx <!
bx00000000xxxxxxxxxxxxxxxxxxxxxxx =!
bx >!
bx00000000xxxxxxxxxxxxxxxxxxxxxxx ?!
x@!
bx B!
bx D!
b10000000 E!
b10000000 F!
bx G!
bx I!
xJ!
bx L!
bx M!
b1001 N
xN!
1P
bx P!
b111 R
bx R!
b1000 S
b10000000 S!
b11 T
bx T!
b10000000 U!
bx V!
bx W!
xX!
bx Y!
1Z
b1000 Z!
b1000 `!
b0 b
b0 e
1g
bx k
b10000000 l
b11100011101000000001000000000000 o
b10000000 s
b1000 t

#70000
0!
0%

#75000
1!
1%
b1001 .
bx 0
12
bx 4!
bx 5!
b0 7
x7!
x8!
b0 9
x9!
x:!
bx ;!
bx =!
bx ?!
xA!
bx C!
bx E!
bx F!
bx H!
1I
b0 N
xO!
0P
bx Q!
b1000 R
b0 S
bx S!
b100000000 T
bx U!
b10000000 Z!
b10000000 \!
b1001 `!
bx b
bx e
b10000000 h
bx l
b10000000 n
bx s
b10000000 t

#80000
0!
0%

#85000
1!
1%
b1010 .
b0 0
11
02
13
b100 4!
b1000 5!
16
b10 7
07!
08!
09!
b10 :
0:!
b100 ;!
b1000 <!
b1000 =!
b1000000100000000000000000000000 >!
b1000 ?!
0@!
0A!
b0 B!
b0 C!
b100 D!
b100 E!
b100 F!
b100 G!
1H
b0 H!
0I
b1000 I!
0J!
b1000 L!
b1000000100000000000000000000000 M!
0N!
0O!
b0 P!
b0 Q!
b0 R
b100 R!
b1 S
b100 S!
b100010101100 T
b100 T!
b100 U!
b10000 V!
b10000001 W!
0X!
b0 Y!
bx Z!
b1000 \!
b1010 `!
b0 b
b0 e
b1000 h
b100 k
b100 l
b1000 n
b1000 s
bx t
b10000000 }
b10000000 ~

#90000
0!
0%

#95000
1!
b1 !!
b1000 "!
b1 #!
b0 $!
1%
b11100011101000000010010001000000 '
b11100011101000000001000000000000 '!
b10000000 (
b1000 )
b0 )!
b0 +!
b1000 ,
b1011 .
b11100011101000000001000000000000 /
b101000000001000000000000 /!
b0 0!
01
b10000000 1!
b10000000 2!
03
b1100 5!
b1100 <!
b1100 =!
b1100 ?!
1C
b11100011101000000001 D
b1000 D!
bz1 E
b1000 G!
0H
b1100 I!
b0 K
b111010 L
b1100 L!
b1 R
b1000 R!
b111 S
b101100 T
b1000 T!
b1110 U
b100000 V!
b1000 Z!
b1100 \!
b1011 `!
b111 b!
b1100 h
b1000 i
b0 j
b1000 k
b1100 n
b10000000 r
b1100 s
b1000 t

#100000
0!
0%

#105000
1!
1%
b11100011101000000010010001000000 (!
b1100 .
b100 0
b0 4!
b0 5!
06
b1 7
18!
b1001 9
b0 :
b11111111111111111111111111111111 ;!
b100000000000000000000000010000000 <!
b10000000 =!
b0 >!
b10000000 ?!
b10000000 D!
b0 E!
b0 F!
b10000000 G!
b10000000 I!
b10000000 L!
b0 M!
b1001 N
1P
b111 R
b10000000 R!
b1000 S
b0 S!
b11 T
b10000000 T!
b0 U!
b1100 Z!
b1100 `!
b1 b
b0 e
b10000000 k
b0 l
b11100011101000000010010001000000 o
b0 s
b1100 t

#110000
0!
0%

#115000
1!
1%
b1101 .
b0 0
x1
12
b10000000 4!
b100000000 5!
b0 7
08!
b0 9
09!
b10000000 ;!
b100000000 <!
b100000000 =!
b1000000100000000000000000000000 >!
b100000000 ?!
b10000000 E!
b10000000 F!
xG
1I
b100000000 I!
b100000000 L!
b1000000100000000000000000000000 M!
b0 N
0P
b1000 R
b0 S
b10000000 S!
b100000000 T
b10000000 U!
b100000000000000 V!
xY
b0 Z!
b0 \!
b1101 `!
b0 b
b0 e
b0 h
b10000000 l
b0 n
b100000000 s
b0 t

#120000
0!
0%

#125000
1!
1%
b1110 .
11
02
13
b100 4!
b1100 5!
16
b10 7
b10 :
b100 ;!
b1100 <!
b1100 =!
b1100 ?!
b1000 D!
b100 E!
b100 F!
0G
b1000 G!
1H
0I
b1100 I!
b1100 L!
b0 R
b1000 R!
b1 S
b100 S!
b100010101100 T
b1000 T!
b100 U!
b100000 V!
0Y
b100000000 Z!
b1100 \!
b1110 `!
b1100 h
b1000 k
b100 l
b1100 n
b1100 s
b100000000 t

#130000
0!
0%

#135000
1!
b10 !!
b1100 "!
b10 #!
b0 $!
1%
b11100011101000001100100001000000 '
b11100011101000000010010001000000 '!
b1100 )
b0 )!
b100 +!
b1100 ,
b1111 .
b11100011101000000010010001000000 /
b101000000010010001000000 /!
b1000000000000000000000000000000 0!
01
03
b10000 5!
b10000 <!
b10000 =!
b10000 ?!
0C
b11100011101000000010 D
b1100 D!
bz0 E
b1100 G!
0H
b10000 I!
b0 K
b111010 L
b10000 L!
b1 R
b1100 R!
b111 S
b101100 T
b1100 T!
b1110 U
b110000 V!
b1100 Z!
b10000 \!
b1111 `!
b111 b!
b10000 h
b1100 i
b1000000000000000000000000000000 j
b1100 k
b10000 n
b10000 s
b1100 t

#140000
0!
0%

#145000
1!
1%
b11100011101000001100100001000000 (!
b10000 .
b1000000000000000000000000000000 4!
b1000000000000000000000000000000 5!
06
b1 7
b1001 9
b0 :
b10111111111111111111111111111111 ;!
b11000000000000000000000010000000 <!
b1000000000000000000000000000000 =!
b100000000000000001000000 >!
b1000000000000000000000000000000 ?!
b10000000 C!
b10000000 D!
b100000000000000000000000 E!
b100000000000000000000000 F!
b0 G!
b10000000 H!
b100000000000000000000000 I!
b0 L!
b100000000000000001000000 M!
b1001 N
1P
b10000000 Q!
b111 R
b10000000 R!
b1000 S
b0 S!
b11 T
b10000000 T!
b100000000000000000000000 U!
b1000000000000000000000000000000 V!
b1 W!
b1000000 Y!
b10000 Z!
b10000 `!
b10000000 k
b1000000000000000000000000000000 l
b11100011101000001100100001000000 o
b1000000000000000000000000000000 s
b10000 t

#150000
0!
0%

#155000
1!
1%
b10001 .
b0 0
12
b10000000 4!
b100000000 5!
b0 7
b0 9
0:!
b10000000 ;!
b100000000 <!
b100000000 =!
b1000000100000000000000000000000 >!
b100000000 ?!
b0 C!
b10000000 E!
b10000000 F!
b10000000 G!
b0 H!
1I
b100000000 I!
b100000000 L!
b1000000100000000000000000000000 M!
b0 N
0P
b0 Q!
b1000 R
b0 S
b10000000 S!
b100000000 T
b10000000 U!
b100000000000000 V!
b10000001 W!
b0 Y!
b1000000000000000000000000000000 Z!
b1000000000000000000000000000000 \!
b10001 `!
b0 b
b0 e
b1000000000000000000000000000000 h
b10000000 l
b1000000000000000000000000000000 n
b100000000 s
b1000000000000000000000000000000 t

#160000
0!
0%

#165000
1!
1%
b10010 .
11
02
13
b100 4!
b10000 5!
16
b10 7
b10 :
b100 ;!
b10000 <!
b10000 =!
b10000 ?!
b1100 D!
b100 E!
b100 F!
b1100 G!
1H
0I
b10000 I!
b10000 L!
b0 R
b1100 R!
b1 S
b100 S!
b100010101100 T
b1100 T!
b100 U!
b110000 V!
b100000000 Z!
b10000 \!
b10010 `!
b10000 h
b1100 k
b100 l
b10000 n
b10000 s
b100000000 t

#170000
0!
0%

#175000
1!
b1100 !!
b10000 "!
b1100 #!
b0 $!
1%
b11100001100000100010000000001100 '
b11100011101000001100100001000000 '!
b10000 )
b0 )!
b1000 +!
b10000 ,
b10011 .
b11100011101000001100100001000000 /
b101000001100100001000000 /!
b10000000000000000000000 0!
01
03
b10100 5!
b10100 <!
b10100 =!
b10100 ?!
b11100011101000001100 D
b10000 D!
b10000 G!
0H
b10100 I!
b0 K
b111010 L
b10100 L!
b1 R
b10000 R!
b111 S
b101100 T
b10000 T!
b1110 U
b1000000 V!
b10000 Z!
b10100 \!
b10011 `!
b111 b!
b10100 h
b10000 i
b10000000000000000000000 j
b10000 k
b10100 n
b10100 s
b10000 t

#180000
0!
0%

#185000
1!
1%
b11100001100000100010000000001100 (!
b10100 .
b10000000000000000000000 4!
b10000000000000000000000 5!
06
b1 7
b1001 9
b0 :
b11111111101111111111111111111111 ;!
b11111111110000000000000010000000 <!
b10000000000000010000000 =!
b1000000100000000000000000100000 >!
b10000000000000010000000 ?!
b10000000 D!
b10000000000000000000000 E!
b10000000000000000000000 F!
b10000000 G!
b10000000000000010000000 I!
b10000000000000010000000 L!
b1000000100000000000000000100000 M!
b1001 N
1P
b111 R
b10000000 R!
b1000 S
b10000000000000000000000 S!
b11 T
b10000000 T!
b10000000000000000000000 U!
b100000000000000000000000000000 V!
b100000 Y!
b10100 Z!
b10100 `!
b10000000 k
b10000000000000000000000 l
b11100001100000100010000000001100 o
b10000000000000000000000 s
b10100 t

#190000
0!
0%

#195000
1!
1%
b10101 .
b0 0
12
b10000000 4!
b100000000 5!
b0 7
b0 9
0:!
b10000000 ;!
b100000000 <!
b100000000 =!
b1000000100000000000000000000000 >!
b100000000 ?!
b10000000 E!
b10000000 F!
1I
b100000000 I!
b100000000 L!
b1000000100000000000000000000000 M!
b0 N
0P
b1000 R
b0 S
b10000000 S!
b100000000 T
b10000000 U!
b100000000000000 V!
b0 Y!
b10000000000000000000000 Z!
b10000000000000000000000 \!
b10101 `!
b0 b
b0 e
b10000000000000000000000 h
b10000000 l
b10000000000000000000000 n
b100000000 s
b10000000000000000000000 t

#200000
0!
0%

#205000
1!
1%
b10110 .
11
02
13
b100 4!
b10100 5!
16
b10 7
b10 :
b100 ;!
b10100 <!
b10100 =!
b10100 ?!
b10000 D!
b100 E!
b100 F!
b10000 G!
1H
0I
b10100 I!
b10100 L!
b0 R
b10000 R!
b1 S
b100 S!
b100010101100 T
b10000 T!
b100 U!
b1000000 V!
b100000000 Z!
b10100 \!
b10110 `!
b10100 h
b10000 k
b100 l
b10100 n
b10100 s
b100000000 t

#210000
0!
0%

#215000
1!
b10 !!
b10100 "!
b10 #!
b10 $!
1%
b11100011101000000011010000111101 '
b11100001100000100010000000001100 '!
b10100 )
b1100 )!
b0 +!
b10100 ,
b10111 .
b11100001100000100010000000001100 /
b100000100010000000001100 /!
b1100 0!
01
03
b11000 5!
b11000 <!
b11000 =!
b11000 ?!
b11100001100000100010 D
b10100 D!
b10100 G!
0H
b11000 I!
b0 K
b11000 L
b11000 L!
b1 R
b10100 R!
b110 S
b101100 T
b10100 T!
b1110 U
b1010000 V!
b10100 Z!
b11000 \!
b10111 `!
b111 b!
b11000 h
b10100 i
b1100 j
b10100 k
b11000 n
b11000 s
b10100 t
b10 v
b1100 w
b10 z
b1100 {
b1000000000000000000000000000000 }
b10000000000000000000000 ~

#220000
0!
0%

#225000
1!
1%
b10000000000000000000000 (
b11100011101000000011010000111101 (!
b11000 .
b1000000000000000000000000000000 1!
b10000000000000000000000 2!
b10000000000000000000000 4!
b1000000010000000000000000000000 5!
06
b0 7
b11 9
b0 :
b11111111101111111111111111111111 ;!
b100111111110000000000000000000000 <!
b1000000000000000000000000000000 =!
b101000000000000000000000 >!
b1000000000000000000000000000000 ?!
b10000000 B!
b100000000000000000000000 D!
b10000000000000000000000 E!
b100000000000000000000000 F!
b0 G!
b10000000 H!
b100000000000000000000000 I!
b0 L!
b101000000000000000000000 M!
b11 N
1P
b10000000 P!
b110 R
b0 R!
b1000 S
b10000000000000000000000 S!
b1 T
b100000000000000000000000 T!
b10000000000000000000000 U!
b1000000000000000000000000000000000000000000000 V!
b1 W!
b1000000000000000000000 Y!
b11000 Z!
b11000 `!
b1000000000000000000000000000000 k
b10000000000000000000000 l
b11100011101000000011010000111101 o
b1000000000000000000000000000000 r
b1000000010000000000000000000000 s
b11000 t

#230000
0!
0%

#235000
1!
1%
b11001 .
b0 0
12
b1000000010000000000000000000000 5!
b0 9
09!
b10000000000000000000000 ;!
b1000000010000000000000000000000 <!
1I
b0 N
0P
b1000 R
b0 S
b100000000 T
b1000000010000000000000000000000 Z!
b1000000010000000000000000000000 \!
b11001 `!
b0 b
b0 e
b1000000010000000000000000000000 h
b1000000010000000000000000000000 n
b1000000010000000000000000000000 t

#240000
0!
0%

#245000
1!
1%
b11010 .
11
02
13
b100 4!
b11000 5!
16
b10 7
b10 :
b100 ;!
b11000 <!
b11000 =!
b1000000100000000000000000000000 >!
b11000 ?!
b0 B!
b10100 D!
b100 E!
b100 F!
b10100 G!
1H
b0 H!
0I
b11000 I!
b11000 L!
b1000000100000000000000000000000 M!
b0 P!
b0 R
b10100 R!
b1 S
b100 S!
b100010101100 T
b10100 T!
b100 U!
b1010000 V!
b10000001 W!
b0 Y!
b11000 \!
b11010 `!
b11000 h
b10100 k
b100 l
b11000 n
b11000 s
b1000000010000000000000000000000 }

#250000
0!
0%

